Stat331: FinalProject
…
Code

residuals

# A tibble: 186 × 9
   .rownames avg_life_exp avg_co2 .fitted .resid    .hat .sigma   .cooksd
   <chr>            <dbl>   <dbl>   <dbl>  <dbl>   <dbl>  <dbl>     <dbl>
 1 1                 38.0  0.0466    41.2 -3.26  0.00834   4.38 0.00235  
 2 2                 47.2  0.496     42.0  5.20  0.00686   4.37 0.00491  
 3 3                 42.1  0.764     42.5 -0.472 0.00622   4.39 0.0000366
 4 5                 37.7  0.211     41.5 -3.84  0.00774   4.38 0.00303  
 5 6                 47.3  1.57      44.0  3.35  0.00538   4.38 0.00159  
 6 7                 49.7  1.43      43.7  6.01  0.00540   4.36 0.00515  
 7 8                 46.2  0.800     42.6  3.62  0.00614   4.38 0.00213  
 8 9                 55.0  5.29      50.7  4.24  0.0227    4.38 0.0112   
 9 10                51.4  4.30      48.9  2.49  0.0146    4.38 0.00245  
10 11                39.2  1.74      44.3 -5.06  0.00541   4.37 0.00366  
# ℹ 176 more rows
# ℹ 1 more variable: .std.resid <dbl>
…
